lab-06
…
Question 6

Which words are most used in each of the specialties? You can use group_by() and top_n() from dplyr to have the calculations be done within each specialty. Remember to remove stop words. What are the 5 most-used words for each specialty?

mtsamples %>% 
  unnest_tokens(word, transcription) %>% 
  anti_join(stop_words, by = c("word")) %>% 
  group_by(medical_specialty) %>% 
  count(word) %>% 
  top_n(5) %>%  # With group_by, top_n(5) takes top 5 counts from each group
  arrange(medical_specialty, desc(n))

Selecting by n

# A tibble: 209 × 3
# Groups:   medical_specialty [40]
   medical_specialty       word          n
   <chr>                   <chr>     <int>
 1 " Allergy / Immunology" history      38
 2 " Allergy / Immunology" noted        23
 3 " Allergy / Immunology" patient      22
 4 " Allergy / Immunology" allergies    21
 5 " Allergy / Immunology" nasal        13
 6 " Allergy / Immunology" past         13
 7 " Autopsy"              left         83
 8 " Autopsy"              1            66
 9 " Autopsy"              inch         59
10 " Autopsy"              neck         55
# ℹ 199 more rows
…
The top quadgrams expand upon the top trigrams seen before.

library(textdata)
get_sentiments("nrc")

# A tibble: 13,872 × 2
   word        sentiment
   <chr>       <chr>    
 1 abacus      trust    
 2 abandon     fear     
 3 abandon     negative 
 4 abandon     sadness  
 5 abandoned   anger    
 6 abandoned   fear     
 7 abandoned   negative 
 8 abandoned   sadness  
 9 abandonment anger    
10 abandonment fear     
# ℹ 13,862 more rows
…
